{
	"AYANA_VERSION": "Ayana versio",
	"AYANA_CORE_VERSION": "Ayana Core versio",
	"INFO_CONTAINER": "Sisältö",
	"INFO_MEMORY": "RAM",
	"INFO_SERVER_REGION": "Palvelimen sijainti",
	"INFO_SERVERS": "Palvelimet",
	"INFO_SHARD": "Siru",
	"INFO_STREAMS": "Suoratoistot",
	"INFO_UPTIME": "Elonaika",
	"INFO_USERS": "Käyttäjät",
	"INFO_ID": "",
	"INFO_USERNAME": "",
	"INFO_DISCRIMINATOR": "",
	"INFO_NICKNAME": "",
	"INFO_STATUS": "",
	"INFO_PLAYING": "",
	"INFO_JOINED": "",
	"INFO_CREATED": "",
	"INFO_MENTION": "",
	"INFO_ROLES": "",
	"SEKITSUI_CLIENT_ID": "Sekitsui Client ID",
	"SEKITSUI_PING": "Sekitsui Ping",
	"SEKITSUI_VERSION": "Sekitsui versio",
	"HEADER_SELECT_ACTION": "Mitä haluaisit tehdä?"
}