{
	"AYANA_VERSION": "",
	"AYANA_CORE_VERSION": "",
	"INFO_CONTAINER": "",
	"INFO_MEMORY": "",
	"INFO_SERVER_REGION": "",
	"INFO_SERVERS": "",
	"INFO_SHARD": "",
	"INFO_STREAMS": "",
	"INFO_UPTIME": "",
	"INFO_USERS": "",
	"INFO_ID": "",
	"INFO_USERNAME": "",
	"INFO_DISCRIMINATOR": "",
	"INFO_NICKNAME": "",
	"INFO_STATUS": "",
	"INFO_PLAYING": "",
	"INFO_JOINED": "",
	"INFO_CREATED": "",
	"INFO_MENTION": "",
	"INFO_ROLES": "",
	"SEKITSUI_CLIENT_ID": "",
	"SEKITSUI_PING": "",
	"SEKITSUI_VERSION": "",
	"HEADER_SELECT_ACTION": ""
}