{
	"INPUT_PARSER_ERROR_CUSTOM": "",
	"INPUT_PARSER_ERROR_EQUALS": "",
	"INPUT_PARSER_ERROR_ENUM": "",
	"INPUT_PARSER_ERROR_NUMBER": "",
	"INPUT_PARSER_ERROR_BOOLEAN": "",
	"INPUT_PARSER_ERROR_DM": "",
	"INPUT_PARSER_HEADER_DEFAULT": ""
}