{
	"AYANA_VERSION": "Ayana Version",
	"AYANA_CORE_VERSION": "Ayana Core Version",
	"INFO_CONTAINER": "Beholder",
	"INFO_MEMORY": "RAM",
	"INFO_SERVER_REGION": "Server Region",
	"INFO_SERVERS": "Servere",
	"INFO_SHARD": "Shard",
	"INFO_STREAMS": "Streams",
	"INFO_UPTIME": "Oppetid",
	"INFO_USERS": "Brugere",
	"INFO_ID": "ID",
	"INFO_USERNAME": "Brugernavn",
	"INFO_DISCRIMINATOR": "Diskriminator",
	"INFO_NICKNAME": "Kaldenavn",
	"INFO_STATUS": "Status",
	"INFO_PLAYING": "Spiller",
	"INFO_JOINED": "Blev medlem",
	"INFO_CREATED": "Oprettet",
	"INFO_MENTION": "Nævn",
	"INFO_ROLES": "Roller",
	"SEKITSUI_CLIENT_ID": "Sekitsui Klient ID",
	"SEKITSUI_PING": "Sekitsui Ping",
	"SEKITSUI_VERSION": "Sekitsui Version",
	"HEADER_SELECT_ACTION": "Hvad vil du gerne gøre?"
}