{
	"AYANA_VERSION": "Ayana verzió",
	"AYANA_CORE_VERSION": "Ayana Core verzió",
	"INFO_CONTAINER": "Tároló",
	"INFO_MEMORY": "RAM",
	"INFO_SERVER_REGION": "Szerver régió",
	"INFO_SERVERS": "Szerverek",
	"INFO_SHARD": "Töredék",
	"INFO_STREAMS": "Folyamok",
	"INFO_UPTIME": "Futási idő",
	"INFO_USERS": "Felhasználók",
	"INFO_ID": "Identitás",
	"INFO_USERNAME": "Felhasználónév",
	"INFO_DISCRIMINATOR": "Megkülönböztetés",
	"INFO_NICKNAME": "Bece név",
	"INFO_STATUS": "Státusz",
	"INFO_PLAYING": "Játszik",
	"INFO_JOINED": "Csatlakozott",
	"INFO_CREATED": "Létrehozva",
	"INFO_MENTION": "Megemlítve",
	"INFO_ROLES": "Szerepek",
	"SEKITSUI_CLIENT_ID": "Sekitsui kliens azonosító",
	"SEKITSUI_PING": "Sekitsuki válaszidő",
	"SEKITSUI_VERSION": "Sekitsui Verzió",
	"HEADER_SELECT_ACTION": "Mit szeretnél csinálni?"
}