{
	"FUN_PAID_RESPECTS": "{username} kifejezte tiszteletét.",
	"FUN_PAID_RESPECTS_FOR": "{username} kifejezte tiszteletét {for} iránt.",
	"FUN_RESPECTS_FOOTER": "{numToday, number} ma, {numAll, number} öszes.",
	"FUN_RESPECTS_STATS": "{numToday, number} ember mutatta tiszteletét ma, és öszesen ennyien: {numAll, number}.",
	"FUN_EMOJIFY_RESULT": "'{name}' emojiként: {emojified}"
}